// Jest Snapshot v1, https://goo.gl/fbAQLP

exports[`Account Balance component should render snapshot for Account Balance Component 1`] = `
<div
  className="ab-container"
>
  <p>
    Account Balance
  </p>
  <div
    className="wallet"
  >
    <div
      className="usd"
    >
      <p>
        USD
      </p>
      <span>
        0.50
      </span>
    </div>
    <div
      className="btc"
    >
      <p>
        BTC
      </p>
      <span>
        0.80000000
      </span>
    </div>
  </div>
</div>
`;
