// Jest Snapshot v1, https://goo.gl/fbAQLP

exports[`InputField component test show match the snapshot of the field 1`] = `
<input
  className="input-field"
  disabled={false}
  onChange={[Function]}
  placeholder="placeholder"
  value="field"
/>
`;
