// Jest Snapshot v1, https://goo.gl/fbAQLP

exports[`Account Balance component render snapshot for LandingPage Container 1`] = `
<div
  className="landing-container"
>
  <div
    className="mockup-container"
  >
    <div
      className="account-balance"
    >
      <div
        className="ab-container"
      >
        <p>
          Account Balance
        </p>
        <div
          className="wallet"
        >
          <div
            className="usd"
          >
            <p>
              USD
            </p>
            <span>
              156.12
            </span>
          </div>
          <div
            className="btc"
          >
            <p>
              BTC
            </p>
            <span>
              0.00000000
            </span>
          </div>
        </div>
      </div>
    </div>
    
    <div
      className="form"
    >
      <div
        className="input-label"
      >
        Trade
      </div>
      <input
        className="input-field"
        disabled={true}
        onChange={[Function]}
        placeholder="USD"
        value=""
      />
      <input
        className="input-field"
        disabled={false}
        onChange={[Function]}
        placeholder="Enter your amount"
        value=""
      />
      <div
        className="input-label"
      >
        For
      </div>
      <input
        className="input-field"
        disabled={true}
        onChange={[Function]}
        placeholder="BTC"
        value=""
      />
      <input
        className="input-field"
        disabled={false}
        onChange={[Function]}
        placeholder="Display Quote"
        value=""
      />
      <button
        className="button false"
        onClick={[Function]}
      >
        Trade
      </button>
    </div>
  </div>
</div>
`;
